{
    "menu-selector": {
        "title": "Selecteur de menu",
        "description": "Selecteur de menu parmis les différents menus wordpress définis",
        "icon": "menu",
        "keywords": [
            "Menu",
            "Ancre",
            "Lien",
            "Selecteur",
            "Selector"
        ],
        "js": true,
        "css": true,
        "callback": "getWordpressMenu"
    }
}